…
- order_species: ordering species and ranking them into a dataframe.

# Input data

Toour exemples, we use ordenaR package data. First, lets load package
and next our data.

``` r
data("data_ordenar", package = "ordenaR")

data_ordenar
```

    ## # A tibble: 25 × 8
    ##    sample_unit gradient_1 gradient_2 species_1 species_2 species_3
    ##    <chr>            <dbl>      <dbl>     <dbl>     <dbl>     <dbl>
    ##  1 p-1               0.78      6.12          0         0         2
    ##  2 p-2               1.23      6.56          0         0         3
    ##  3 p-3               1.68      7.00          0         0         4
    ##  4 p-4               2.14      7.45          0         0         3
    ##  5 p-5               2.59      7.89          0         0         2
    ##  6 p-6               3.04      0.27          0         0         0
    ##  7 p-7               3.49      0.572         0         0         0
    ##  8 p-8               3.94      0.875         0         0         0
    ##  9 p-9               4.40      1.18          0         0         0
    ## 10 p-10              4.85      1.48          0         0         0
    ## # ℹ 15 more rows
    ## # ℹ 2 more variables: species_4 <dbl>, species_5 <dbl>
…
